module demo1

go 1.22.3

require (
	github.com/asaskevich/govalidator v0.0.0-20230301143203-a9d515a09cc2 // indirect
	github.com/gorilla/mux v1.8.1 // indirect
	github.com/jmoiron/sqlx v1.4.0 // indirect
	github.com/joho/godotenv v1.5.1 // indirect
	github.com/kelseyhightower/envconfig v1.4.0 // indirect
	github.com/lib/pq v1.10.9 // indirect
	github.com/sirupsen/logrus v1.9.3 // indirect
	golang.org/x/sys v0.0.0-20220715151400-c0bba94af5f8 // indirect
)
